Library\Bee\artifacts\mvdfrm\Unity.EditorCoroutines.Editor.ref.dll_34ED10A34098B2DB.mvfrm
Library\Bee\artifacts\mvdfrm\Unity.InputSystem.ref.dll_FD2EC87C14EBE081.mvfrm
Library\Bee\artifacts\mvdfrm\Unity.InternalAPIEditorBridge.007.ref.dll_97B87E3425FBC6C4.mvfrm
Library\Bee\artifacts\mvdfrm\Unity.InternalAPIEngineBridge.007.ref.dll_8A3336DE8B0AAE09.mvfrm
Library\Bee\artifacts\mvdfrm\Unity.Performance.Profile-Analyzer.Editor.ref.dll_65A192712782EB2B.mvfrm
Library\Bee\artifacts\mvdfrm\Unity.PlasticSCM.Editor.ref.dll_257AEB342BE77856.mvfrm
Library\Bee\artifacts\mvdfrm\Unity.Rider.Editor.ref.dll_9B5591808ABA37AF.mvfrm
Library\Bee\artifacts\mvdfrm\Unity.Services.Core.Analytics.ref.dll_EDA1682A714EA6BF.mvfrm
Library\Bee\artifacts\mvdfrm\Unity.Services.Core.Environments.ref.dll_7E0AC2CDE81D9C6D.mvfrm
Library\Bee\artifacts\mvdfrm\Unity.Services.Core.ref.dll_131AC9C5EC6E6517.mvfrm
Library\Bee\artifacts\mvdfrm\Unity.Subsystem.Registration.ref.dll_6F73CCF373812FF6.mvfrm
Library\Bee\artifacts\mvdfrm\Unity.TestTools.CodeCoverage.Editor.OpenCover.Model.ref.dll_D3B9364D6FB03093.mvfrm
Library\Bee\artifacts\mvdfrm\Unity.TestTools.CodeCoverage.Editor.OpenCover.Mono.Reflection.ref.dll_E668CD773429A040.mvfrm
Library\Bee\artifacts\mvdfrm\Unity.TestTools.CodeCoverage.Editor.ref.dll_F09CF4826CE11CD9.mvfrm
Library\Bee\artifacts\mvdfrm\Unity.TextMeshPro.Editor.ref.dll_159E061D77A10B86.mvfrm
Library\Bee\artifacts\mvdfrm\Unity.TextMeshPro.ref.dll_84A4293DBDD182DB.mvfrm
Library\Bee\artifacts\mvdfrm\Unity.Timeline.Editor.ref.dll_0D3D3C0B73557612.mvfrm
Library\Bee\artifacts\mvdfrm\Unity.Timeline.ref.dll_621CDDF9C514DF8F.mvfrm
Library\Bee\artifacts\mvdfrm\Unity.Tutorials.Core.Editor.ref.dll_50087571DCD14B8B.mvfrm
Library\Bee\artifacts\mvdfrm\Unity.Tutorials.Core.ref.dll_D3CDBE453963C686.mvfrm
Library\Bee\artifacts\mvdfrm\Unity.VSCode.Editor.ref.dll_3628369EB48E4C19.mvfrm
Library\Bee\artifacts\mvdfrm\Unity.VisualScripting.Core.Editor.ref.dll_EDC8690F57C5BDFD.mvfrm
Library\Bee\artifacts\mvdfrm\Unity.VisualScripting.Core.ref.dll_D75DF4EA1AFE54F4.mvfrm
Library\Bee\artifacts\mvdfrm\Unity.VisualScripting.Flow.Editor.ref.dll_6AF951BE66A4493E.mvfrm
Library\Bee\artifacts\mvdfrm\Unity.VisualScripting.Flow.ref.dll_1E6ED5409D07C9A3.mvfrm
Library\Bee\artifacts\mvdfrm\Unity.VisualScripting.SettingsProvider.Editor.ref.dll_A1A44354E0B583A8.mvfrm
Library\Bee\artifacts\mvdfrm\Unity.VisualScripting.Shared.Editor.ref.dll_9669F6EBFF6DFFB7.mvfrm
Library\Bee\artifacts\mvdfrm\Unity.VisualScripting.State.Editor.ref.dll_E03858E727F23F6F.mvfrm
Library\Bee\artifacts\mvdfrm\Unity.VisualScripting.State.ref.dll_D91762B7076BE462.mvfrm
Library\Bee\artifacts\mvdfrm\Unity.VisualStudio.Editor.ref.dll_3A975DBA53ABA4AD.mvfrm
Library\Bee\artifacts\mvdfrm\Unity.XR.CoreUtils.Editor.ref.dll_ABFC049C4594FF75.mvfrm
Library\Bee\artifacts\mvdfrm\Unity.XR.CoreUtils.ref.dll_3CA2B461938B5BFC.mvfrm
Library\Bee\artifacts\mvdfrm\Unity.XR.Interaction.Toolkit.Editor.ref.dll_13D11C44DBE92115.mvfrm
Library\Bee\artifacts\mvdfrm\Unity.XR.Interaction.Toolkit.ref.dll_96C656129EF9A05C.mvfrm
Library\Bee\artifacts\mvdfrm\Unity.XR.Management.Editor.ref.dll_7BA8CC5454F13E52.mvfrm
Library\Bee\artifacts\mvdfrm\Unity.XR.Management.ref.dll_404BC0C35449934F.mvfrm
Library\Bee\artifacts\mvdfrm\Unity.XR.Oculus.Editor.ref.dll_EC6E1675CFAEEAAC.mvfrm
Library\Bee\artifacts\mvdfrm\Unity.XR.Oculus.ref.dll_431DEB9238966955.mvfrm
Library\Bee\artifacts\mvdfrm\Unity.XR.OpenXR.Editor.ref.dll_A75B1C5B45FBE091.mvfrm
Library\Bee\artifacts\mvdfrm\Unity.XR.OpenXR.Features.ConformanceAutomation.ref.dll_01FEA043C7470D3F.mvfrm
Library\Bee\artifacts\mvdfrm\Unity.XR.OpenXR.Features.OculusQuestSupport.Editor.ref.dll_FEFB5585E8396F68.mvfrm
Library\Bee\artifacts\mvdfrm\Unity.XR.OpenXR.Features.OculusQuestSupport.ref.dll_9101E0597D5BC8D9.mvfrm
Library\Bee\artifacts\mvdfrm\Unity.XR.OpenXR.Features.RuntimeDebugger.Editor.ref.dll_C24E087EF9B388C5.mvfrm
Library\Bee\artifacts\mvdfrm\Unity.XR.OpenXR.ref.dll_18763C29B6421920.mvfrm
Library\Bee\artifacts\mvdfrm\UnityEditor.SpatialTracking.ref.dll_8911EA67839E93F0.mvfrm
Library\Bee\artifacts\mvdfrm\UnityEditor.UI.ref.dll_4C98D3F7040CD4F5.mvfrm
Library\Bee\artifacts\mvdfrm\UnityEditor.XR.LegacyInputHelpers.ref.dll_3F12D550ED6E7C7D.mvfrm
Library\Bee\artifacts\mvdfrm\UnityEngine.SpatialTracking.ref.dll_1552DC8EFC971715.mvfrm
Library\Bee\artifacts\mvdfrm\UnityEngine.UI.ref.dll_08FEAA520A2EFD60.mvfrm
Library\Bee\artifacts\mvdfrm\UnityEngine.XR.LegacyInputHelpers.ref.dll_FFA26A0728B3CF82.mvfrm
Library\Bee\artifacts\mvdfrm\UnityEditor.CoreModule.dll_C853DD210C04FA2D.mvfrm
Library\Bee\artifacts\mvdfrm\UnityEditor.DeviceSimulatorModule.dll_0D953C505372C624.mvfrm
Library\Bee\artifacts\mvdfrm\UnityEditor.DiagnosticsModule.dll_17FD3332031ECF72.mvfrm
Library\Bee\artifacts\mvdfrm\UnityEditor.dll_855AE89CEC50B7D8.mvfrm
Library\Bee\artifacts\mvdfrm\UnityEditor.GraphViewModule.dll_CA7557C8B1EB7909.mvfrm
Library\Bee\artifacts\mvdfrm\UnityEditor.PackageManagerUIModule.dll_C5464FBAC4288149.mvfrm
Library\Bee\artifacts\mvdfrm\UnityEditor.QuickSearchModule.dll_A30CB43F5BF5CBCB.mvfrm
Library\Bee\artifacts\mvdfrm\UnityEditor.SceneTemplateModule.dll_19DA9981B57241AC.mvfrm
Library\Bee\artifacts\mvdfrm\UnityEditor.TextCoreFontEngineModule.dll_DB1AFA7DA3C4150B.mvfrm
Library\Bee\artifacts\mvdfrm\UnityEditor.TextCoreTextEngineModule.dll_230330EF3347CE29.mvfrm
Library\Bee\artifacts\mvdfrm\UnityEditor.UIBuilderModule.dll_1EFE04E524A3F23D.mvfrm
Library\Bee\artifacts\mvdfrm\UnityEditor.UIElementsModule.dll_7A153C28825C8C49.mvfrm
Library\Bee\artifacts\mvdfrm\UnityEditor.UIElementsSamplesModule.dll_21BCCF387A68CCB4.mvfrm
Library\Bee\artifacts\mvdfrm\UnityEditor.UIServiceModule.dll_57F016480DDB4257.mvfrm
Library\Bee\artifacts\mvdfrm\UnityEditor.UnityConnectModule.dll_4E06FD35BA61BF63.mvfrm
Library\Bee\artifacts\mvdfrm\UnityEngine.AccessibilityModule.dll_4C800518B5E86949.mvfrm
Library\Bee\artifacts\mvdfrm\UnityEngine.AIModule.dll_11F598E291B3C4E1.mvfrm
Library\Bee\artifacts\mvdfrm\UnityEngine.AndroidJNIModule.dll_F85E24FBCB7BFB1F.mvfrm
Library\Bee\artifacts\mvdfrm\UnityEngine.AnimationModule.dll_98FAD3F18C484DAF.mvfrm
Library\Bee\artifacts\mvdfrm\UnityEngine.ARModule.dll_CB685DE5EED123AA.mvfrm
Library\Bee\artifacts\mvdfrm\UnityEngine.AssetBundleModule.dll_E6F5E730BE5C80BD.mvfrm
Library\Bee\artifacts\mvdfrm\UnityEngine.AudioModule.dll_340B729BCBAC2AE1.mvfrm
Library\Bee\artifacts\mvdfrm\UnityEngine.ClothModule.dll_9AF3CF96A5C909C5.mvfrm
Library\Bee\artifacts\mvdfrm\UnityEngine.ClusterInputModule.dll_CDA3724B6BE99229.mvfrm
Library\Bee\artifacts\mvdfrm\UnityEngine.ClusterRendererModule.dll_1341FEC1C32DD3A8.mvfrm
Library\Bee\artifacts\mvdfrm\UnityEngine.CoreModule.dll_EB74B073B40A6558.mvfrm
Library\Bee\artifacts\mvdfrm\UnityEngine.CrashReportingModule.dll_B4A49D68351DBFF0.mvfrm
Library\Bee\artifacts\mvdfrm\UnityEngine.DirectorModule.dll_FE91DD7204CF4975.mvfrm
Library\Bee\artifacts\mvdfrm\UnityEngine.dll_B7FF2F754AC444BD.mvfrm
Library\Bee\artifacts\mvdfrm\UnityEngine.DSPGraphModule.dll_03E33EDB77301A96.mvfrm
Library\Bee\artifacts\mvdfrm\UnityEngine.GameCenterModule.dll_22AB6F1691BCEC10.mvfrm
Library\Bee\artifacts\mvdfrm\UnityEngine.GIModule.dll_AA31E1F02D62ACFB.mvfrm
Library\Bee\artifacts\mvdfrm\UnityEngine.GridModule.dll_C8E5CC61CC5EFB4F.mvfrm
Library\Bee\artifacts\mvdfrm\UnityEngine.HotReloadModule.dll_1A4391F7677B6931.mvfrm
Library\Bee\artifacts\mvdfrm\UnityEngine.ImageConversionModule.dll_7F33FC7245528B9C.mvfrm
Library\Bee\artifacts\mvdfrm\UnityEngine.IMGUIModule.dll_6C6B120291DDBEC2.mvfrm
Library\Bee\artifacts\mvdfrm\UnityEngine.InputLegacyModule.dll_783B024F564E36AE.mvfrm
Library\Bee\artifacts\mvdfrm\UnityEngine.InputModule.dll_9A813A4C41E44F85.mvfrm
Library\Bee\artifacts\mvdfrm\UnityEngine.JSONSerializeModule.dll_AC978E54B523C9D3.mvfrm
Library\Bee\artifacts\mvdfrm\UnityEngine.LocalizationModule.dll_0BF03C9E03658522.mvfrm
Library\Bee\artifacts\mvdfrm\UnityEngine.ParticleSystemModule.dll_07B6E6B4A32F4B7E.mvfrm
Library\Bee\artifacts\mvdfrm\UnityEngine.PerformanceReportingModule.dll_5428409BEE6D5217.mvfrm
Library\Bee\artifacts\mvdfrm\UnityEngine.Physics2DModule.dll_E5A0C3E22D454544.mvfrm
Library\Bee\artifacts\mvdfrm\UnityEngine.PhysicsModule.dll_97C17A5C73416BD2.mvfrm
Library\Bee\artifacts\mvdfrm\UnityEngine.ProfilerModule.dll_30D816A89E28D082.mvfrm
Library\Bee\artifacts\mvdfrm\UnityEngine.RuntimeInitializeOnLoadManagerInitializerModule.dll_A76F0206427B3E0D.mvfrm
Library\Bee\artifacts\mvdfrm\UnityEngine.ScreenCaptureModule.dll_C67F3BD9C98FF635.mvfrm
Library\Bee\artifacts\mvdfrm\UnityEngine.SharedInternalsModule.dll_03453B47BC8086EC.mvfrm
Library\Bee\artifacts\mvdfrm\UnityEngine.SpriteMaskModule.dll_0BD7E1A6B32C818A.mvfrm
Library\Bee\artifacts\mvdfrm\UnityEngine.SpriteShapeModule.dll_0057148B73FEB8C7.mvfrm
Library\Bee\artifacts\mvdfrm\UnityEngine.StreamingModule.dll_4D8FC141DBD004ED.mvfrm
Library\Bee\artifacts\mvdfrm\UnityEngine.SubstanceModule.dll_2A3AD58B272302FB.mvfrm
Library\Bee\artifacts\mvdfrm\UnityEngine.SubsystemsModule.dll_768548088174699D.mvfrm
Library\Bee\artifacts\mvdfrm\UnityEngine.TerrainModule.dll_B207F5CB48FFB4C0.mvfrm
Library\Bee\artifacts\mvdfrm\UnityEngine.TerrainPhysicsModule.dll_08318F87BC72460B.mvfrm
Library\Bee\artifacts\mvdfrm\UnityEngine.TextCoreFontEngineModule.dll_597A75D0B6C1D3D6.mvfrm
Library\Bee\artifacts\mvdfrm\UnityEngine.TextCoreTextEngineModule.dll_A162AC4246458CF4.mvfrm
Library\Bee\artifacts\mvdfrm\UnityEngine.TextRenderingModule.dll_EFBEADE480C7762A.mvfrm
Library\Bee\artifacts\mvdfrm\UnityEngine.TilemapModule.dll_51045D4C60BC95C9.mvfrm
Library\Bee\artifacts\mvdfrm\UnityEngine.TLSModule.dll_FD109E6C30897826.mvfrm
Library\Bee\artifacts\mvdfrm\UnityEngine.UIElementsModule.dll_7AC3A97084A0A594.mvfrm
Library\Bee\artifacts\mvdfrm\UnityEngine.UIElementsNativeModule.dll_0FC0045035A0F16B.mvfrm
Library\Bee\artifacts\mvdfrm\UnityEngine.UIModule.dll_0D69370FEDFACA8D.mvfrm
Library\Bee\artifacts\mvdfrm\UnityEngine.UmbraModule.dll_AEE01EB458D2D654.mvfrm
Library\Bee\artifacts\mvdfrm\UnityEngine.UNETModule.dll_7E1AF85D01195AD1.mvfrm
Library\Bee\artifacts\mvdfrm\UnityEngine.UnityAnalyticsModule.dll_2756577E4F569D7A.mvfrm
Library\Bee\artifacts\mvdfrm\UnityEngine.UnityConnectModule.dll_3B668144B4E9C00E.mvfrm
Library\Bee\artifacts\mvdfrm\UnityEngine.UnityCurlModule.dll_CC177522FC5C3F9C.mvfrm
Library\Bee\artifacts\mvdfrm\UnityEngine.UnityTestProtocolModule.dll_DD7F852AD464220A.mvfrm
Library\Bee\artifacts\mvdfrm\UnityEngine.UnityWebRequestAssetBundleModule.dll_6EA36AF42E274BCB.mvfrm
Library\Bee\artifacts\mvdfrm\UnityEngine.UnityWebRequestAudioModule.dll_CC24947A74D81CAF.mvfrm
Library\Bee\artifacts\mvdfrm\UnityEngine.UnityWebRequestModule.dll_90D3041C5047261B.mvfrm
Library\Bee\artifacts\mvdfrm\UnityEngine.UnityWebRequestTextureModule.dll_39A07C52DC20AE64.mvfrm
Library\Bee\artifacts\mvdfrm\UnityEngine.UnityWebRequestWWWModule.dll_6C24F19E36054960.mvfrm
Library\Bee\artifacts\mvdfrm\UnityEngine.VehiclesModule.dll_7654D6F17EF91910.mvfrm
Library\Bee\artifacts\mvdfrm\UnityEngine.VFXModule.dll_7DEF36DB06F6E193.mvfrm
Library\Bee\artifacts\mvdfrm\UnityEngine.VideoModule.dll_5914F7068E3E4686.mvfrm
Library\Bee\artifacts\mvdfrm\UnityEngine.VirtualTexturingModule.dll_344CB8BF0E4F71F6.mvfrm
Library\Bee\artifacts\mvdfrm\UnityEngine.VRModule.dll_603B5D958FB55005.mvfrm
Library\Bee\artifacts\mvdfrm\UnityEngine.WindModule.dll_61C38B9C4540E3C1.mvfrm
Library\Bee\artifacts\mvdfrm\UnityEngine.XRModule.dll_92FA209A18EF9D63.mvfrm
Library\Bee\artifacts\mvdfrm\Unity.Android.Gradle.dll_E3643B0DC34D5A95.mvfrm
Library\Bee\artifacts\mvdfrm\Unity.Android.Types.dll_11B0BFACAE31E477.mvfrm
Library\Bee\artifacts\mvdfrm\Unity.VisualScripting.Antlr3.Runtime.dll_11A3A9AC709DBC7F.mvfrm